^C:\USERS\ONURS\DESKTOP\HOMEWORK\CIRCULARLINKEDLIST\CIRCULARLINKEDLIST\TESTPROGRAM.CPP
C:\USERS\ONURS\DESKTOP\HOMEWORK\CIRCULARLINKEDLIST\CIRCULARLINKEDLIST\DEBUG\VC140.PDB
C:\USERS\ONURS\DESKTOP\HOMEWORK\CIRCULARLINKEDLIST\CIRCULARLINKEDLIST\DEBUG\VC140.IDB
C:\USERS\ONURS\DESKTOP\HOMEWORK\CIRCULARLINKEDLIST\CIRCULARLINKEDLIST\DEBUG\TESTPROGRAM.OBJ
