^C:\USERS\ONURS\DESKTOP\HOMEWORK\LAB4\LAB4\DEBUG\TESTLINKEDSTACK.OBJ
C:\USERS\ONURS\DESKTOP\HOMEWORK\LAB4\DEBUG\LAB4.ILK
C:\USERS\ONURS\DESKTOP\HOMEWORK\LAB4\DEBUG\LAB4.EXE
C:\USERS\ONURS\DESKTOP\HOMEWORK\LAB4\DEBUG\LAB4.PDB
